{
  "project_info": {
    "project_number": "538836145485",
    "firebase_url": "https://notifyme-313b6.firebaseio.com",
    "project_id": "notifyme-313b6",
    "storage_bucket": "notifyme-313b6.appspot.com"
  },
  "client": [
    {
      "client_info": {
        "mobilesdk_app_id": "1:538836145485:android:54418039d31dde5ce7d304",
        "android_client_info": {
          "package_name": "com.developer.notifyme"
        }
      },
      "oauth_client": [
        {
          "client_id": "538836145485-q48e4bvh3cvt61oto3h8h7njnqft29uo.apps.googleusercontent.com",
          "client_type": 3
        }
      ],
      "api_key": [
        {
          "current_key": "AIzaSyAiL7r2LZA2AzXeU3PGHF7CqB49_5uM-Qk"
        }
      ],
      "services": {
        "appinvite_service": {
          "other_platform_oauth_client": [
            {
              "client_id": "538836145485-q48e4bvh3cvt61oto3h8h7njnqft29uo.apps.googleusercontent.com",
              "client_type": 3
            }
          ]
        }
      }
    }
  ],
  "configuration_version": "1"
}